{"name":"Get list users resource","id":"get-list-users;get-list-users-resource","testSteps":[{"number":1,"description":"Given Get list users resource","duration":292,"startTime":"2023-05-22T16:51:50.115+07:00[Asia/Bangkok]","result":"SUCCESS","precondition":false,"level":0,"children":[{"number":2,"description":"GET https://reqres.in/api/unknown\r","duration":0,"startTime":"2023-05-22T16:51:50.405+07:00[Asia/Bangkok]","result":"SUCCESS","restQuery":{"method":"GET","path":"https://reqres.in/api/unknown\r","content":"\r","contentType":"null","requestHeaders":"Accept\u003d*/*\r","requestCookies":"\r","responseHeaders":"Date: Mon, 22 May 2023 09:51:51 GMT\r\nContent-Type: application/json; charset\u003dutf-8\r\nTransfer-Encoding: chunked\r\nConnection: keep-alive\r\nX-Powered-By: Express\r\nAccess-Control-Allow-Origin: *\r\nEtag: W/\"2c1-N6Rqerxquq2kgQhL51EiSg4x0R8\"\r\nVia: 1.1 vegur\r\nCache-Control: max-age\u003d14400\r\nCF-Cache-Status: HIT\r\nAge: 5537\r\nReport-To: {\"endpoints\":[{\"url\":\"https:\\/\\/a.nel.cloudflare.com\\/report\\/v3?s\u003de%2BVg0LNN9eKqiZxCi00FfbGY3Teqqbc0UYnIba6tIJ%2BmACSBoFEiLpn5jwxe79X4t8MrBiCZIysP3TxwTiohi14HQ4UY%2B111tkTDmUBAgtg4zd%2B%2FgWMi3rY%2BEA%3D%3D\"}],\"group\":\"cf-nel\",\"max_age\":604800}\r\nNEL: {\"success_fraction\":0,\"report_to\":\"cf-nel\",\"max_age\":604800}\r\nVary: Accept-Encoding\r\nServer: cloudflare\r\nCF-RAY: 7cb429b87b114038-SIN\r\nContent-Encoding: gzip\r","responseCookies":"\r","responseBody":"{\n    \"page\": 1,\n    \"per_page\": 6,\n    \"total\": 12,\n    \"total_pages\": 2,\n    \"data\": [\n        {\n            \"id\": 1,\n            \"name\": \"cerulean\",\n            \"year\": 2000,\n            \"color\": \"#98B2D1\",\n            \"pantone_value\": \"15-4020\"\n        },\n        {\n            \"id\": 2,\n            \"name\": \"fuchsia rose\",\n            \"year\": 2001,\n            \"color\": \"#C74375\",\n            \"pantone_value\": \"17-2031\"\n        },\n        {\n            \"id\": 3,\n            \"name\": \"true red\",\n            \"year\": 2002,\n            \"color\": \"#BF1932\",\n            \"pantone_value\": \"19-1664\"\n        },\n        {\n            \"id\": 4,\n            \"name\": \"aqua sky\",\n            \"year\": 2003,\n            \"color\": \"#7BC4C4\",\n            \"pantone_value\": \"14-4811\"\n        },\n        {\n            \"id\": 5,\n            \"name\": \"tigerlily\",\n            \"year\": 2004,\n            \"color\": \"#E2583E\",\n            \"pantone_value\": \"17-1456\"\n        },\n        {\n            \"id\": 6,\n            \"name\": \"blue turquoise\",\n            \"year\": 2005,\n            \"color\": \"#53B0AE\",\n            \"pantone_value\": \"15-5217\"\n        }\n    ],\n    \"support\": {\n        \"url\": \"https://reqres.in/#support-heading\",\n        \"text\": \"To keep ReqRes free, contributions towards server costs are appreciated!\"\n    }\n}","statusCode":200},"precondition":false,"level":1}]},{"number":3,"description":"Then Status code should be 200 OK","duration":8,"startTime":"2023-05-22T16:51:50.407+07:00[Asia/Bangkok]","result":"SUCCESS","precondition":false,"level":0},{"number":4,"description":"And Validate get list users resource JSON Schema","duration":39,"startTime":"2023-05-22T16:51:50.416+07:00[Asia/Bangkok]","result":"SUCCESS","precondition":false,"level":0}],"userStory":{"id":"get-list-users","storyName":"Get list users","path":"classpath:features/reqres/GetListUsers.feature","type":"feature"},"featureTag":{"name":"Reqres/Get list users","type":"feature","displayName":"Reqres/Get list users"},"title":"Get list users resource","description":"","tags":[{"name":"Reqres","type":"capability","displayName":"Reqres"},{"name":"Reqres/Get list users","type":"feature","displayName":"Get list users"},{"name":"Tugas","type":"tag","displayName":"Tugas"}],"startTime":"2023-05-22T16:51:50.108+07:00[Asia/Bangkok]","duration":349,"projectKey":"","isManualTestingUpToDate":false,"manual":false,"testSource":"Cucumber","result":"SUCCESS"}