{"name":"Get list user with valid parameter page","id":"get-list-users;get-list-user-with-valid-parameter-page","testSteps":[{"number":1,"description":"1: Get list user with valid parameter page ({page\u003d1})","duration":2802,"startTime":"2023-05-22T16:51:41.032+07:00[Asia/Bangkok]","result":"SUCCESS","precondition":false,"level":0,"lineNumber":12,"children":[{"number":2,"description":"Given Get list users with valid parameter page 1","duration":59,"startTime":"2023-05-22T16:51:41.038+07:00[Asia/Bangkok]","result":"SUCCESS","precondition":false,"level":1,"children":[{"number":3,"description":"Get list user with valid parameter page","duration":2,"startTime":"2023-05-22T16:51:41.093+07:00[Asia/Bangkok]","result":"SUCCESS","precondition":false,"level":2}]},{"number":4,"description":"When Send get lists users","duration":738,"startTime":"2023-05-22T16:51:41.100+07:00[Asia/Bangkok]","result":"SUCCESS","precondition":false,"level":1,"children":[{"number":5,"description":"GET https://reqres.in/api/users?page\u003d1\r","duration":0,"startTime":"2023-05-22T16:51:41.836+07:00[Asia/Bangkok]","result":"SUCCESS","restQuery":{"method":"GET","path":"https://reqres.in/api/users?page\u003d1\r","content":"\r","contentType":"null","requestHeaders":"Accept\u003d*/*\r","requestCookies":"\r","responseHeaders":"Date: Mon, 22 May 2023 09:51:42 GMT\r\nContent-Type: application/json; charset\u003dutf-8\r\nTransfer-Encoding: chunked\r\nConnection: keep-alive\r\nX-Powered-By: Express\r\nAccess-Control-Allow-Origin: *\r\nEtag: W/\"3e4-2RLXvr5wTg9YQ6aH95CkYoFNuO8\"\r\nVia: 1.1 vegur\r\nCache-Control: max-age\u003d14400\r\nCF-Cache-Status: HIT\r\nAge: 5435\r\nReport-To: {\"endpoints\":[{\"url\":\"https:\\/\\/a.nel.cloudflare.com\\/report\\/v3?s\u003dE0yEOCtKqyXySr%2BSjA20Wz726nEG53VQVfL%2BkfDd%2Bpsf1JOn21n9YVm6FtkEmyrSyuFz1RafswctwTiu3i17Z9giGpuL8EqZ2PkbGeov6%2BfOtimUenjkoieenA%3D%3D\"}],\"group\":\"cf-nel\",\"max_age\":604800}\r\nNEL: {\"success_fraction\":0,\"report_to\":\"cf-nel\",\"max_age\":604800}\r\nVary: Accept-Encoding\r\nServer: cloudflare\r\nCF-RAY: 7cb429814a913dbd-SIN\r\nContent-Encoding: gzip\r","responseCookies":"\r","responseBody":"{\n    \"page\": 1,\n    \"per_page\": 6,\n    \"total\": 12,\n    \"total_pages\": 2,\n    \"data\": [\n        {\n            \"id\": 1,\n            \"email\": \"george.bluth@reqres.in\",\n            \"first_name\": \"George\",\n            \"last_name\": \"Bluth\",\n            \"avatar\": \"https://reqres.in/img/faces/1-image.jpg\"\n        },\n        {\n            \"id\": 2,\n            \"email\": \"janet.weaver@reqres.in\",\n            \"first_name\": \"Janet\",\n            \"last_name\": \"Weaver\",\n            \"avatar\": \"https://reqres.in/img/faces/2-image.jpg\"\n        },\n        {\n            \"id\": 3,\n            \"email\": \"emma.wong@reqres.in\",\n            \"first_name\": \"Emma\",\n            \"last_name\": \"Wong\",\n            \"avatar\": \"https://reqres.in/img/faces/3-image.jpg\"\n        },\n        {\n            \"id\": 4,\n            \"email\": \"eve.holt@reqres.in\",\n            \"first_name\": \"Eve\",\n            \"last_name\": \"Holt\",\n            \"avatar\": \"https://reqres.in/img/faces/4-image.jpg\"\n        },\n        {\n            \"id\": 5,\n            \"email\": \"charles.morris@reqres.in\",\n            \"first_name\": \"Charles\",\n            \"last_name\": \"Morris\",\n            \"avatar\": \"https://reqres.in/img/faces/5-image.jpg\"\n        },\n        {\n            \"id\": 6,\n            \"email\": \"tracey.ramos@reqres.in\",\n            \"first_name\": \"Tracey\",\n            \"last_name\": \"Ramos\",\n            \"avatar\": \"https://reqres.in/img/faces/6-image.jpg\"\n        }\n    ],\n    \"support\": {\n        \"url\": \"https://reqres.in/#support-heading\",\n        \"text\": \"To keep ReqRes free, contributions towards server costs are appreciated!\"\n    }\n}","statusCode":200},"precondition":false,"level":2}]},{"number":6,"description":"Then Status code should be 200 OK","duration":9,"startTime":"2023-05-22T16:51:41.840+07:00[Asia/Bangkok]","result":"SUCCESS","precondition":false,"level":1},{"number":7,"description":"And Response body page should be page 1","duration":1233,"startTime":"2023-05-22T16:51:41.851+07:00[Asia/Bangkok]","result":"SUCCESS","precondition":false,"level":1},{"number":8,"description":"And Validate get list user JSON Schema","duration":745,"startTime":"2023-05-22T16:51:43.087+07:00[Asia/Bangkok]","result":"SUCCESS","precondition":false,"level":1}]},{"number":9,"description":"2: Get list user with valid parameter page ({page\u003d2})","duration":459,"startTime":"2023-05-22T16:51:43.882+07:00[Asia/Bangkok]","result":"SUCCESS","precondition":false,"level":0,"lineNumber":13,"children":[{"number":10,"description":"Given Get list users with valid parameter page 2","duration":18,"startTime":"2023-05-22T16:51:43.886+07:00[Asia/Bangkok]","result":"SUCCESS","precondition":false,"level":1,"children":[{"number":11,"description":"Get list user with valid parameter page","duration":2,"startTime":"2023-05-22T16:51:43.900+07:00[Asia/Bangkok]","result":"SUCCESS","precondition":false,"level":2}]},{"number":12,"description":"When Send get lists users","duration":317,"startTime":"2023-05-22T16:51:43.905+07:00[Asia/Bangkok]","result":"SUCCESS","precondition":false,"level":1,"children":[{"number":13,"description":"GET https://reqres.in/api/users?page\u003d2\r","duration":0,"startTime":"2023-05-22T16:51:44.220+07:00[Asia/Bangkok]","result":"SUCCESS","restQuery":{"method":"GET","path":"https://reqres.in/api/users?page\u003d2\r","content":"\r","contentType":"null","requestHeaders":"Accept\u003d*/*\r","requestCookies":"\r","responseHeaders":"Date: Mon, 22 May 2023 09:51:44 GMT\r\nContent-Type: application/json; charset\u003dutf-8\r\nTransfer-Encoding: chunked\r\nConnection: keep-alive\r\nX-Powered-By: Express\r\nAccess-Control-Allow-Origin: *\r\nEtag: W/\"406-ut0vzoCuidvyMf8arZpMpJ6ZRDw\"\r\nVia: 1.1 vegur\r\nCache-Control: max-age\u003d14400\r\nCF-Cache-Status: HIT\r\nAge: 109\r\nReport-To: {\"endpoints\":[{\"url\":\"https:\\/\\/a.nel.cloudflare.com\\/report\\/v3?s\u003drSzAesGW%2FdtgqRbtt5hgWmwJeuwgFlru7bImXIMSazrZC2Ionharr4b7JqAID%2BGzfSbbeH5UeFWT4He3rgRRnfBxvURzg%2FL%2BYp7kwMbG1NdeCUnYLevjCAzdrA%3D%3D\"}],\"group\":\"cf-nel\",\"max_age\":604800}\r\nNEL: {\"success_fraction\":0,\"report_to\":\"cf-nel\",\"max_age\":604800}\r\nVary: Accept-Encoding\r\nServer: cloudflare\r\nCF-RAY: 7cb42991c84f40d4-SIN\r\nContent-Encoding: gzip\r","responseCookies":"\r","responseBody":"{\n    \"page\": 2,\n    \"per_page\": 6,\n    \"total\": 12,\n    \"total_pages\": 2,\n    \"data\": [\n        {\n            \"id\": 7,\n            \"email\": \"michael.lawson@reqres.in\",\n            \"first_name\": \"Michael\",\n            \"last_name\": \"Lawson\",\n            \"avatar\": \"https://reqres.in/img/faces/7-image.jpg\"\n        },\n        {\n            \"id\": 8,\n            \"email\": \"lindsay.ferguson@reqres.in\",\n            \"first_name\": \"Lindsay\",\n            \"last_name\": \"Ferguson\",\n            \"avatar\": \"https://reqres.in/img/faces/8-image.jpg\"\n        },\n        {\n            \"id\": 9,\n            \"email\": \"tobias.funke@reqres.in\",\n            \"first_name\": \"Tobias\",\n            \"last_name\": \"Funke\",\n            \"avatar\": \"https://reqres.in/img/faces/9-image.jpg\"\n        },\n        {\n            \"id\": 10,\n            \"email\": \"byron.fields@reqres.in\",\n            \"first_name\": \"Byron\",\n            \"last_name\": \"Fields\",\n            \"avatar\": \"https://reqres.in/img/faces/10-image.jpg\"\n        },\n        {\n            \"id\": 11,\n            \"email\": \"george.edwards@reqres.in\",\n            \"first_name\": \"George\",\n            \"last_name\": \"Edwards\",\n            \"avatar\": \"https://reqres.in/img/faces/11-image.jpg\"\n        },\n        {\n            \"id\": 12,\n            \"email\": \"rachel.howell@reqres.in\",\n            \"first_name\": \"Rachel\",\n            \"last_name\": \"Howell\",\n            \"avatar\": \"https://reqres.in/img/faces/12-image.jpg\"\n        }\n    ],\n    \"support\": {\n        \"url\": \"https://reqres.in/#support-heading\",\n        \"text\": \"To keep ReqRes free, contributions towards server costs are appreciated!\"\n    }\n}","statusCode":200},"precondition":false,"level":2}]},{"number":14,"description":"Then Status code should be 200 OK","duration":10,"startTime":"2023-05-22T16:51:44.224+07:00[Asia/Bangkok]","result":"SUCCESS","precondition":false,"level":1},{"number":15,"description":"And Response body page should be page 2","duration":36,"startTime":"2023-05-22T16:51:44.237+07:00[Asia/Bangkok]","result":"SUCCESS","precondition":false,"level":1},{"number":16,"description":"And Validate get list user JSON Schema","duration":65,"startTime":"2023-05-22T16:51:44.275+07:00[Asia/Bangkok]","result":"SUCCESS","precondition":false,"level":1}]}],"userStory":{"id":"get-list-users","storyName":"Get list users","path":"classpath:features/reqres/GetListUsers.feature","type":"feature"},"featureTag":{"name":"Reqres/Get list users","type":"feature","displayName":"Reqres/Get list users"},"title":"Get list user with valid parameter page","description":"","tags":[{"name":"Reqres","type":"capability","displayName":"Reqres"},{"name":"Reqres/Get list users","type":"feature","displayName":"Get list users"},{"name":"Tugas","type":"tag","displayName":"Tugas"}],"startTime":"2023-05-22T16:51:41.009+07:00[Asia/Bangkok]","duration":3335,"projectKey":"","isManualTestingUpToDate":false,"dataTable":{"headers":["page"],"rows":[{"values":["1"],"lineNumber":12,"result":"SUCCESS"},{"values":["2"],"lineNumber":13,"result":"SUCCESS"}],"predefinedRows":true,"scenarioOutline":"Given Get list users with valid parameter page \u003cpage\u003e\n\rWhen Send get lists users\n\rThen Status code should be 200 OK\n\rAnd Response body page should be page \u003cpage\u003e\n\rAnd Validate get list user JSON Schema\n\r","dataSetDescriptors":[{"startRow":0,"rowCount":0,"name":"","description":""}]},"manual":false,"testSource":"Cucumber","result":"SUCCESS","scenarioOutline":"Given Get list users with valid parameter page \u003cpage\u003e\r\nWhen Send get lists users\r\nThen Status code should be 200 OK\r\nAnd Response body page should be page \u003cpage\u003e\r\nAnd Validate get list user JSON Schema"}