{"name":"Get list user with invalid parameter number page","id":"get-list-users;get-list-user-with-invalid-parameter-number-page","testSteps":[{"number":1,"description":"1: Get list user with invalid parameter number page ({page\u003d23})","duration":769,"startTime":"2023-05-22T16:51:48.507+07:00[Asia/Bangkok]","exception":{"errorType":"java.lang.AssertionError","message":"1 expectation failed.\nExpected status code \u003c404\u003e but was \u003c200\u003e.\n","stackTrace":[{"declaringClass":"io.restassured.internal.ResponseSpecificationImpl","methodName":"validateResponseIfRequired","fileName":"ResponseSpecificationImpl.groovy","lineNumber":674},{"declaringClass":"io.restassured.internal.ResponseSpecificationImpl","methodName":"statusCode","fileName":"ResponseSpecificationImpl.groovy","lineNumber":126},{"declaringClass":"io.restassured.internal.ResponseSpecificationImpl","methodName":"statusCode","fileName":"ResponseSpecificationImpl.groovy","lineNumber":134},{"declaringClass":"io.restassured.internal.ValidatableResponseOptionsImpl","methodName":"statusCode","fileName":"ValidatableResponseOptionsImpl.java","lineNumber":89},{"declaringClass":"io.restassured.internal.ValidatableResponseImpl","methodName":"super$2$statusCode","fileName":"ValidatableResponseImpl.groovy","lineNumber":-1},{"declaringClass":"groovy.lang.MetaMethod","methodName":"doMethodInvoke","fileName":"MetaMethod.java","lineNumber":323},{"declaringClass":"groovy.lang.MetaClassImpl","methodName":"invokeMethod","fileName":"MetaClassImpl.java","lineNumber":1267},{"declaringClass":"io.restassured.internal.ValidatableResponseImpl","methodName":"statusCode","fileName":"ValidatableResponseImpl.groovy","lineNumber":142},{"declaringClass":"io.restassured.internal.ValidatableResponseImpl","methodName":"statusCode","fileName":"ValidatableResponseImpl.groovy","lineNumber":-1},{"declaringClass":"starter.StepDef.ReqresStepDef","methodName":"statusCodeShouldBeNotFound","fileName":"ReqresStepDef.java","lineNumber":49},{"declaringClass":"✽","methodName":"Status code should be 404 Not Found","fileName":"classpath:features/reqres/GetListUsers.feature","lineNumber":31}]},"result":"FAILURE","precondition":false,"level":0,"lineNumber":34,"children":[{"number":2,"description":"Given Get list users with invalid parameter number page 23","duration":12,"startTime":"2023-05-22T16:51:48.509+07:00[Asia/Bangkok]","result":"SUCCESS","precondition":false,"level":1,"children":[{"number":3,"description":"Get list user with valid parameter page","duration":2,"startTime":"2023-05-22T16:51:48.517+07:00[Asia/Bangkok]","result":"SUCCESS","precondition":false,"level":2}]},{"number":4,"description":"When Send get lists users","duration":722,"startTime":"2023-05-22T16:51:48.523+07:00[Asia/Bangkok]","result":"SUCCESS","precondition":false,"level":1,"children":[{"number":5,"description":"GET https://reqres.in/api/users?page\u003d23\r","duration":0,"startTime":"2023-05-22T16:51:49.243+07:00[Asia/Bangkok]","result":"SUCCESS","restQuery":{"method":"GET","path":"https://reqres.in/api/users?page\u003d23\r","content":"\r","contentType":"null","requestHeaders":"Accept\u003d*/*\r","requestCookies":"\r","responseHeaders":"Date: Mon, 22 May 2023 09:51:49 GMT\r\nContent-Type: application/json; charset\u003dutf-8\r\nTransfer-Encoding: chunked\r\nConnection: keep-alive\r\nX-Powered-By: Express\r\nAccess-Control-Allow-Origin: *\r\nEtag: W/\"c6-MqIhDAVdUjfvgXVEnMzhFXN4smQ\"\r\nVia: 1.1 vegur\r\nCache-Control: max-age\u003d14400\r\nCF-Cache-Status: MISS\r\nReport-To: {\"endpoints\":[{\"url\":\"https:\\/\\/a.nel.cloudflare.com\\/report\\/v3?s\u003dAGxH4gwfFqnilzz8R2u8xU3i1CA%2FfG7Djc4B5M9xXdyroegc46CCd3xAL741pmAwt2zwfMS5YPMsoeY48eRJcKyd44yOMLLPRSQw7JPU2aLhboW3zARvquBj5g%3D%3D\"}],\"group\":\"cf-nel\",\"max_age\":604800}\r\nNEL: {\"success_fraction\":0,\"report_to\":\"cf-nel\",\"max_age\":604800}\r\nVary: Accept-Encoding\r\nServer: cloudflare\r\nCF-RAY: 7cb429aedeb74cbf-SIN\r\nContent-Encoding: gzip\r","responseCookies":"\r","responseBody":"{\n    \"page\": 23,\n    \"per_page\": 6,\n    \"total\": 12,\n    \"total_pages\": 2,\n    \"data\": [\n        \n    ],\n    \"support\": {\n        \"url\": \"https://reqres.in/#support-heading\",\n        \"text\": \"To keep ReqRes free, contributions towards server costs are appreciated!\"\n    }\n}","statusCode":200},"precondition":false,"level":2}]},{"number":6,"description":"Then Status code should be 404 Not Found","duration":18,"startTime":"2023-05-22T16:51:49.247+07:00[Asia/Bangkok]","exception":{"errorType":"java.lang.AssertionError","message":"1 expectation failed.\nExpected status code \u003c404\u003e but was \u003c200\u003e.\n","stackTrace":[{"declaringClass":"io.restassured.internal.ResponseSpecificationImpl","methodName":"validateResponseIfRequired","fileName":"ResponseSpecificationImpl.groovy","lineNumber":674},{"declaringClass":"io.restassured.internal.ResponseSpecificationImpl","methodName":"statusCode","fileName":"ResponseSpecificationImpl.groovy","lineNumber":126},{"declaringClass":"io.restassured.internal.ResponseSpecificationImpl","methodName":"statusCode","fileName":"ResponseSpecificationImpl.groovy","lineNumber":134},{"declaringClass":"io.restassured.internal.ValidatableResponseOptionsImpl","methodName":"statusCode","fileName":"ValidatableResponseOptionsImpl.java","lineNumber":89},{"declaringClass":"io.restassured.internal.ValidatableResponseImpl","methodName":"super$2$statusCode","fileName":"ValidatableResponseImpl.groovy","lineNumber":-1},{"declaringClass":"groovy.lang.MetaMethod","methodName":"doMethodInvoke","fileName":"MetaMethod.java","lineNumber":323},{"declaringClass":"groovy.lang.MetaClassImpl","methodName":"invokeMethod","fileName":"MetaClassImpl.java","lineNumber":1267},{"declaringClass":"io.restassured.internal.ValidatableResponseImpl","methodName":"statusCode","fileName":"ValidatableResponseImpl.groovy","lineNumber":142},{"declaringClass":"io.restassured.internal.ValidatableResponseImpl","methodName":"statusCode","fileName":"ValidatableResponseImpl.groovy","lineNumber":-1},{"declaringClass":"starter.StepDef.ReqresStepDef","methodName":"statusCodeShouldBeNotFound","fileName":"ReqresStepDef.java","lineNumber":49},{"declaringClass":"✽","methodName":"Status code should be 404 Not Found","fileName":"classpath:features/reqres/GetListUsers.feature","lineNumber":31}]},"result":"FAILURE","precondition":false,"level":1}]},{"number":7,"description":"2: Get list user with invalid parameter number page ({page\u003d44})","duration":792,"startTime":"2023-05-22T16:51:49.301+07:00[Asia/Bangkok]","exception":{"errorType":"java.lang.AssertionError","message":"1 expectation failed.\nExpected status code \u003c404\u003e but was \u003c200\u003e.\n","stackTrace":[{"declaringClass":"io.restassured.internal.ResponseSpecificationImpl","methodName":"validateResponseIfRequired","fileName":"ResponseSpecificationImpl.groovy","lineNumber":674},{"declaringClass":"io.restassured.internal.ResponseSpecificationImpl","methodName":"statusCode","fileName":"ResponseSpecificationImpl.groovy","lineNumber":126},{"declaringClass":"io.restassured.internal.ResponseSpecificationImpl","methodName":"statusCode","fileName":"ResponseSpecificationImpl.groovy","lineNumber":134},{"declaringClass":"io.restassured.internal.ValidatableResponseOptionsImpl","methodName":"statusCode","fileName":"ValidatableResponseOptionsImpl.java","lineNumber":89},{"declaringClass":"io.restassured.internal.ValidatableResponseImpl","methodName":"super$2$statusCode","fileName":"ValidatableResponseImpl.groovy","lineNumber":-1},{"declaringClass":"groovy.lang.MetaMethod","methodName":"doMethodInvoke","fileName":"MetaMethod.java","lineNumber":323},{"declaringClass":"groovy.lang.MetaClassImpl","methodName":"invokeMethod","fileName":"MetaClassImpl.java","lineNumber":1267},{"declaringClass":"io.restassured.internal.ValidatableResponseImpl","methodName":"statusCode","fileName":"ValidatableResponseImpl.groovy","lineNumber":142},{"declaringClass":"io.restassured.internal.ValidatableResponseImpl","methodName":"statusCode","fileName":"ValidatableResponseImpl.groovy","lineNumber":-1},{"declaringClass":"starter.StepDef.ReqresStepDef","methodName":"statusCodeShouldBeNotFound","fileName":"ReqresStepDef.java","lineNumber":49},{"declaringClass":"✽","methodName":"Status code should be 404 Not Found","fileName":"classpath:features/reqres/GetListUsers.feature","lineNumber":31}]},"result":"FAILURE","precondition":false,"level":0,"lineNumber":35,"children":[{"number":8,"description":"Given Get list users with invalid parameter number page 44","duration":17,"startTime":"2023-05-22T16:51:49.305+07:00[Asia/Bangkok]","result":"SUCCESS","precondition":false,"level":1,"children":[{"number":9,"description":"Get list user with valid parameter page","duration":4,"startTime":"2023-05-22T16:51:49.314+07:00[Asia/Bangkok]","result":"SUCCESS","precondition":false,"level":2}]},{"number":10,"description":"When Send get lists users","duration":745,"startTime":"2023-05-22T16:51:49.324+07:00[Asia/Bangkok]","result":"SUCCESS","precondition":false,"level":1,"children":[{"number":11,"description":"GET https://reqres.in/api/users?page\u003d44\r","duration":0,"startTime":"2023-05-22T16:51:50.066+07:00[Asia/Bangkok]","result":"SUCCESS","restQuery":{"method":"GET","path":"https://reqres.in/api/users?page\u003d44\r","content":"\r","contentType":"null","requestHeaders":"Accept\u003d*/*\r","requestCookies":"\r","responseHeaders":"Date: Mon, 22 May 2023 09:51:50 GMT\r\nContent-Type: application/json; charset\u003dutf-8\r\nTransfer-Encoding: chunked\r\nConnection: keep-alive\r\nX-Powered-By: Express\r\nAccess-Control-Allow-Origin: *\r\nEtag: W/\"c6-wdtdURjOdMCCfLtBD4GiM8jswI0\"\r\nVia: 1.1 vegur\r\nCache-Control: max-age\u003d14400\r\nCF-Cache-Status: MISS\r\nReport-To: {\"endpoints\":[{\"url\":\"https:\\/\\/a.nel.cloudflare.com\\/report\\/v3?s\u003dOXN1LtPT0dDdQzbOuKEbM0C2XcsLuF6be37lmsB2AZHmIVnzwXTUL1Nj%2FXGv2uHR0bZY9OQt%2FPgc0tT2C6UB3u4%2F5JQRXRMwSNBYPkCwcch9soFUt2f1efyJMA%3D%3D\"}],\"group\":\"cf-nel\",\"max_age\":604800}\r\nNEL: {\"success_fraction\":0,\"report_to\":\"cf-nel\",\"max_age\":604800}\r\nVary: Accept-Encoding\r\nServer: cloudflare\r\nCF-RAY: 7cb429b3c8074048-SIN\r\nContent-Encoding: gzip\r","responseCookies":"\r","responseBody":"{\n    \"page\": 44,\n    \"per_page\": 6,\n    \"total\": 12,\n    \"total_pages\": 2,\n    \"data\": [\n        \n    ],\n    \"support\": {\n        \"url\": \"https://reqres.in/#support-heading\",\n        \"text\": \"To keep ReqRes free, contributions towards server costs are appreciated!\"\n    }\n}","statusCode":200},"precondition":false,"level":2}]},{"number":12,"description":"Then Status code should be 404 Not Found","duration":14,"startTime":"2023-05-22T16:51:50.071+07:00[Asia/Bangkok]","exception":{"errorType":"java.lang.AssertionError","message":"1 expectation failed.\nExpected status code \u003c404\u003e but was \u003c200\u003e.\n","stackTrace":[{"declaringClass":"io.restassured.internal.ResponseSpecificationImpl","methodName":"validateResponseIfRequired","fileName":"ResponseSpecificationImpl.groovy","lineNumber":674},{"declaringClass":"io.restassured.internal.ResponseSpecificationImpl","methodName":"statusCode","fileName":"ResponseSpecificationImpl.groovy","lineNumber":126},{"declaringClass":"io.restassured.internal.ResponseSpecificationImpl","methodName":"statusCode","fileName":"ResponseSpecificationImpl.groovy","lineNumber":134},{"declaringClass":"io.restassured.internal.ValidatableResponseOptionsImpl","methodName":"statusCode","fileName":"ValidatableResponseOptionsImpl.java","lineNumber":89},{"declaringClass":"io.restassured.internal.ValidatableResponseImpl","methodName":"super$2$statusCode","fileName":"ValidatableResponseImpl.groovy","lineNumber":-1},{"declaringClass":"groovy.lang.MetaMethod","methodName":"doMethodInvoke","fileName":"MetaMethod.java","lineNumber":323},{"declaringClass":"groovy.lang.MetaClassImpl","methodName":"invokeMethod","fileName":"MetaClassImpl.java","lineNumber":1267},{"declaringClass":"io.restassured.internal.ValidatableResponseImpl","methodName":"statusCode","fileName":"ValidatableResponseImpl.groovy","lineNumber":142},{"declaringClass":"io.restassured.internal.ValidatableResponseImpl","methodName":"statusCode","fileName":"ValidatableResponseImpl.groovy","lineNumber":-1},{"declaringClass":"starter.StepDef.ReqresStepDef","methodName":"statusCodeShouldBeNotFound","fileName":"ReqresStepDef.java","lineNumber":49},{"declaringClass":"✽","methodName":"Status code should be 404 Not Found","fileName":"classpath:features/reqres/GetListUsers.feature","lineNumber":31}]},"result":"FAILURE","precondition":false,"level":1}]}],"userStory":{"id":"get-list-users","storyName":"Get list users","path":"classpath:features/reqres/GetListUsers.feature","type":"feature"},"featureTag":{"name":"Reqres/Get list users","type":"feature","displayName":"Reqres/Get list users"},"title":"Get list user with invalid parameter number page","description":"","tags":[{"name":"Reqres","type":"capability","displayName":"Reqres"},{"name":"Reqres/Get list users","type":"feature","displayName":"Get list users"},{"name":"Tugas","type":"tag","displayName":"Tugas"}],"startTime":"2023-05-22T16:51:48.495+07:00[Asia/Bangkok]","duration":1601,"testFailureCause":{"errorType":"java.lang.AssertionError","message":"1 expectation failed.\nExpected status code \u003c404\u003e but was \u003c200\u003e.\n","stackTrace":[{"declaringClass":"io.restassured.internal.ResponseSpecificationImpl","methodName":"validateResponseIfRequired","fileName":"ResponseSpecificationImpl.groovy","lineNumber":674},{"declaringClass":"io.restassured.internal.ResponseSpecificationImpl","methodName":"statusCode","fileName":"ResponseSpecificationImpl.groovy","lineNumber":126},{"declaringClass":"io.restassured.internal.ResponseSpecificationImpl","methodName":"statusCode","fileName":"ResponseSpecificationImpl.groovy","lineNumber":134},{"declaringClass":"io.restassured.internal.ValidatableResponseOptionsImpl","methodName":"statusCode","fileName":"ValidatableResponseOptionsImpl.java","lineNumber":89},{"declaringClass":"io.restassured.internal.ValidatableResponseImpl","methodName":"super$2$statusCode","fileName":"ValidatableResponseImpl.groovy","lineNumber":-1},{"declaringClass":"groovy.lang.MetaMethod","methodName":"doMethodInvoke","fileName":"MetaMethod.java","lineNumber":323},{"declaringClass":"groovy.lang.MetaClassImpl","methodName":"invokeMethod","fileName":"MetaClassImpl.java","lineNumber":1267},{"declaringClass":"io.restassured.internal.ValidatableResponseImpl","methodName":"statusCode","fileName":"ValidatableResponseImpl.groovy","lineNumber":142},{"declaringClass":"io.restassured.internal.ValidatableResponseImpl","methodName":"statusCode","fileName":"ValidatableResponseImpl.groovy","lineNumber":-1},{"declaringClass":"starter.StepDef.ReqresStepDef","methodName":"statusCodeShouldBeNotFound","fileName":"ReqresStepDef.java","lineNumber":49},{"declaringClass":"✽","methodName":"Status code should be 404 Not Found","fileName":"classpath:features/reqres/GetListUsers.feature","lineNumber":31}]},"testFailureClassname":"java.lang.AssertionError","testFailureMessage":"1 expectation failed.\nExpected status code \u003c404\u003e but was \u003c200\u003e.\n","testFailureSummary":"FAILURE;java.lang.AssertionError;1 expectation failed.\nExpected status code \u003c404\u003e but was \u003c200\u003e.\n;ResponseSpecificationImpl.groovy","projectKey":"","isManualTestingUpToDate":false,"dataTable":{"headers":["page"],"rows":[{"values":["23"],"lineNumber":34,"result":"FAILURE"},{"values":["44"],"lineNumber":35,"result":"FAILURE"}],"predefinedRows":true,"scenarioOutline":"Given Get list users with invalid parameter number page \u003cpage\u003e\n\rWhen Send get lists users\n\rThen Status code should be 404 Not Found\n\r","dataSetDescriptors":[{"startRow":0,"rowCount":0,"name":"","description":""}]},"manual":false,"testSource":"Cucumber","result":"FAILURE","scenarioOutline":"Given Get list users with invalid parameter number page \u003cpage\u003e\r\nWhen Send get lists users\r\nThen Status code should be 404 Not Found"}